{
    "1": {
      "pts": [14,	0,	7,	0,	0,	0,	4,	0],
      "avg": [4.25,	0.75,	8.625,	2.375,	1,	0.625,	5.625,	0],
      "max": [14,	6,	29,	9,	4,	4,	11,	0]
    },
    "2": {
      "pts": [50,	0,	14,	5,	1,	0,	4,	0],
      "avg": [30,	1.625,	11.625,	3,	1.5,	0.625,	6.375,	0],
      "max": [70,	11,	37,	9,	5,	4,	16,	0]
    }
  }